ISSS 608 - Take Home 3
…
# Filter the original edges for the top ids
filtered_edges <- mc3_edges %>%
  filter(id %in% top_10_ids$id)

# Count occurrences of each type_new per id
type_new_counts <- filtered_edges %>%
  group_by(id, type_new) %>%
  summarise(count = n(), .groups = "drop") %>%
  arrange(desc(count))

# Print the result to check
print(type_new_counts)

# A tibble: 25 × 3
   id                          type_new            count
   <chr>                       <chr>               <int>
 1 Downs Group                 BeneficialOwnership   119
 2 Mills, Atkinson and Chavez  BeneficialOwnership    90
 3 Walton-Blair                BeneficialOwnership    71
 4 Hart Ltd                    BeneficialOwnership    64
 5 Keith, Cervantes and Torres BeneficialOwnership    63
 6 Reynolds-Wallace            BeneficialOwnership    63
 7 Mosley and Sons             BeneficialOwnership    61
 8 Williams, Brown and Palmer  BeneficialOwnership    61
 9 Cervantes-Kramer            BeneficialOwnership    49
10 Carlson-Ingram              BeneficialOwnership    48
# ℹ 15 more rows
…
